%YAML 1.1
%TAG !u! tag:unity3d.com,2011:
--- !u!114 &11400000
MonoBehaviour:
  m_ObjectHideFlags: 0
  m_CorrespondingSourceObject: {fileID: 0}
  m_PrefabInstance: {fileID: 0}
  m_PrefabAsset: {fileID: 0}
  m_GameObject: {fileID: 0}
  m_Enabled: 1
  m_EditorHideFlags: 0
  m_Script: {fileID: 11500000, guid: 96f536136b922b34c8813fcb663e1850, type: 3}
  m_Name: CapsulePlayerControllerSettingsPreset-Preset3
  m_EditorClassIdentifier: 
  RotationSpeed: 180
  DirectionalSpeed: 3
  DirectionalSprintSpeed: 5
  ForwardKey: 22
  BackwardKey: 28
  TurnLeftKey: 16
  TurnRightKey: 27
  SprintKey: 51
  InteractionKey: 19
