%YAML 1.1
%TAG !u! tag:unity3d.com,2011:
--- !u!1045 &1
EditorBuildSettings:
  m_ObjectHideFlags: 0
  serializedVersion: 2
  m_Scenes:
  - enabled: 1
    path: Assets/Scenes/Lab6_SC_Col/SceneMainMenu.unity
    guid: b08850d81df67e34b92ba2d1dad0fd3b
  - enabled: 1
    path: Assets/Scenes/Lab6_SC_Col/SceneGameplay.unity
    guid: 81d1923d36b523d48a46789cdb26c7ac
  - enabled: 1
    path: Assets/Scenes/Lab6_SC_Col/SceneOptions.unity
    guid: 77ee47e918b17b14e9c70e7dd554c607
  - enabled: 1
    path: Assets/Scenes/Lab6_SC_Col/SceneCredits.unity
    guid: 2a388cd807a7a014db3089f4a8203f14
  m_configObjects: {}
